module github.com/brandond/syslog_ng_exporter

go 1.13

require (
	github.com/golang/protobuf v1.3.2-0.20190409050943-e91709a02e0e // indirect
	github.com/konsorten/go-windows-terminal-sequences v1.0.2 // indirect
	github.com/matttproud/golang_protobuf_extensions v1.0.2-0.20181231171920-c182affec369 // indirect
	github.com/prometheus/client_golang v0.9.3-0.20190416085848-65d3a96fbaa7
	github.com/prometheus/common v0.3.1-0.20190416093430-c873fb1f9420
	github.com/prometheus/procfs v0.0.0-20190416084830-8368d24ba045 // indirect
	github.com/sirupsen/logrus v1.4.2-0.20190403091019-9b3cdde74fbe // indirect
	golang.org/x/sys v0.0.0-20190422165155-953cdadca894 // indirect
	gopkg.in/alecthomas/kingpin.v2 v2.2.6
)
